{
  "Version": "2012-10-17",
  "Statement": [
    {
      "Effect": "Allow",
      "Principal": {
        "AWS": [
          "*"
        ]
      },
      "Action": [
        "s3:GetBucketLocation",
        "s3:ListBucket"
      ],
      "Resource": [
        "arn:aws:s3:::verteiler"
      ]
    },
    {
      "Effect": "Allow",
      "Principal": {
        "AWS": [
          "*"
        ]
      },
      "Action": [
        "s3:GetObject"
      ],
      "Resource": [
        "arn:aws:s3:::verteiler/*"
      ]
    },
    {
      "Effect": "Allow",
      "Principal": {
        "AWS": [
          "arn:aws:iam:::user/verteiler"
        ]
      },
      "Action": [
        "s3:PutObject"
      ],
      "Resource": [
        "arn:aws:s3:::verteiler/*"
      ]
    }
  ]
}
